plotting_logit_models.R
…
# use the modelr functions to get predictions from the model
# note: unfortunately the add_predictions will give back log odds
# because it doesn't accept a type = "response" argument
# so we've named the column accordingly with the var = "log_odds"
# argument and then converted log_odds to a probability
# using the sigmoid function
loan %>%
  data_grid(fico) %>%
  add_predictions(logit1, var = "log_odds") %>%
  mutate(prob = 1 / (1 + exp(-log_odds)))

## # A tibble: 44 x 3
##     fico log_odds  prob
##    <int>    <dbl> <dbl>
##  1   612    0.530 0.629
##  2   617    0.592 0.644
##  3   622    0.654 0.658
##  4   627    0.715 0.672
##  5   632    0.777 0.685
##  6   637    0.839 0.698
##  7   642    0.901 0.711
##  8   647    0.962 0.724
##  9   652    1.02  0.736
## 10   657    1.09  0.748
## # ... with 34 more rows
…
